{
    "KPlugin": {
        "Authors": [
            {
                "Email": "kde@privat.broulik.de",
                "Name": "Kai Uwe Broulik",
                "Name[ar]": "Kai Uwe Broulik",
                "Name[az]": "Kai Uwe Broulik",
                "Name[bg]": "Kai Uwe Broulik",
                "Name[ca@valencia]": "Kai Uwe Broulik",
                "Name[ca]": "Kai Uwe Broulik",
                "Name[cs]": "Kai Uwe Broulik",
                "Name[de]": "Kai Uwe Broulik",
                "Name[en_GB]": "Kai Uwe Broulik",
                "Name[es]": "Kai Uwe Broulik",
                "Name[eu]": "Kai Uwe Broulik",
                "Name[fi]": "Kai Uwe Broulik",
                "Name[fr]": "Kai Uwe Broulik",
                "Name[ia]": "Kai Uwe Broulik",
                "Name[id]": "Kai Uwe Broulik",
                "Name[is]": "Kai Uwe Broulik",
                "Name[it]": "Kai Uwe Broulik",
                "Name[ja]": "Kai Uwe Broulik",
                "Name[ka]": "კაი უვე ბროულიკი",
                "Name[ko]": "Kai Uwe Broulik",
                "Name[lt]": "Kai Uwe Broulik",
                "Name[nl]": "Kai Uwe Broulik",
                "Name[nn]": "Kai Uwe Broulik",
                "Name[pl]": "Kai Uwe Broulik",
                "Name[pt]": "Kai Uwe Broulik",
                "Name[pt_BR]": "Kai Uwe Broulik",
                "Name[ro]": "Kai Uwe Broulik",
                "Name[ru]": "Kai Uwe Broulik",
                "Name[sk]": "Kai Uwe Broulik",
                "Name[sl]": "Kai Uwe Broulik",
                "Name[sv]": "Kai Uwe Broulik",
                "Name[tr]": "Kai Uwe Broulik",
                "Name[uk]": "Kai Uwe Broulik",
                "Name[vi]": "Kai Uwe Broulik",
                "Name[x-test]": "xxKai Uwe Broulikxx",
                "Name[zh_CN]": "Kai Uwe Broulik",
                "Name[zh_TW]": "Kai Uwe Broulik"
            }
        ],
        "Category": "Graphics",
        "Description": "Pick a color from the desktop",
        "Description[ar]": "اختر لونا من سطح المكتب",
        "Description[az]": "Rəngi İş masasından seçin",
        "Description[bg]": "Избиране на цвят от работния плот",
        "Description[ca@valencia]": "Selecciona un color de l'escriptori",
        "Description[ca]": "Selecciona un color de l'escriptori",
        "Description[cs]": "Vzít barvu z plochy",
        "Description[de]": "Eine Farbe von der Arbeitsfläche wählen",
        "Description[en_GB]": "Pick a colour from the desktop",
        "Description[es]": "Seleccionar un color del escritorio",
        "Description[eu]": "Hartu mahaigaineko kolore bat",
        "Description[fi]": "Valitse työpöydältä väri",
        "Description[fr]": "Sélectionner une couleur à partir de votre bureau",
        "Description[ia]": "Selige un color ex le scriptorio",
        "Description[id]": "Pilih sebuah warna dari desktop",
        "Description[is]": "Plokkar lit af skjáborði",
        "Description[it]": "Ottieni un colore dal desktop",
        "Description[ja]": "デスクトップから色を取得します",
        "Description[ko]": "바탕 화면의 색상 가져오기",
        "Description[lt]": "Pasirinkti spalvą iš darbalaukio",
        "Description[nl]": "Kies een kleur van het bureaublad",
        "Description[nn]": "Hent fargar frå skrivebordet",
        "Description[pl]": "Wybiera kolory z pulpitu",
        "Description[pt]": "Escolher uma cor do ecrã",
        "Description[pt_BR]": "Escolha uma cor na área de trabalho",
        "Description[ro]": "Alegeți o culoare de pe birou",
        "Description[ru]": "Выбор цвета из точки рабочего стола",
        "Description[sk]": "Vyberte farbu z pracovnej plochy",
        "Description[sl]": "Izberi barvo iz namizja",
        "Description[sv]": "Hämta en färg från skrivbordet",
        "Description[tr]": "Masaüstünden bir renk seç",
        "Description[uk]": "Вибір кольору зі стільниці",
        "Description[vi]": "Nhặt một màu trên bàn làm việc",
        "Description[x-test]": "xxPick a color from the desktopxx",
        "Description[zh_CN]": "拾取桌面环境中的颜色",
        "Description[zh_TW]": "從桌面上提取顏色",
        "FormFactors": [
            "desktop"
        ],
        "Icon": "color-picker",
        "Id": "org.kde.plasma.colorpicker",
        "License": "GPL-2.0+",
        "Name": "Color Picker",
        "Name[ar]": "منتق الألوان",
        "Name[az]": "Rəng seçici",
        "Name[bg]": "Избиране на цвят",
        "Name[ca@valencia]": "Selector de color",
        "Name[ca]": "Selector de color",
        "Name[cs]": "Kapátko",
        "Name[de]": "Farbwähler",
        "Name[en_GB]": "Colour Picker",
        "Name[es]": "Selector de color",
        "Name[eu]": "Kolore hautatzailea",
        "Name[fi]": "Värivalinta",
        "Name[fr]": "Sélecteur de couleurs",
        "Name[ia]": "Selector de colores",
        "Name[id]": "Pemilih Warna",
        "Name[is]": "Litaplokkari",
        "Name[it]": "Selettore del colore",
        "Name[ja]": "カラーピッカー",
        "Name[ka]": "ფერის ამრჩევი",
        "Name[ko]": "색상 선택기",
        "Name[lt]": "Spalvų parinkiklis",
        "Name[nl]": "Kleurenkiezer",
        "Name[nn]": "Fargeveljar",
        "Name[pl]": "Wybierak barwy",
        "Name[pt]": "Selector de Cores",
        "Name[pt_BR]": "Seletor de cores",
        "Name[ro]": "Selector de culori",
        "Name[ru]": "Выбор цвета",
        "Name[sk]": "Výber farieb",
        "Name[sl]": "Izbirnik barve",
        "Name[sv]": "Färgväljare",
        "Name[tr]": "Renk Seçici",
        "Name[uk]": "Піпетка",
        "Name[vi]": "Trình nhặt màu",
        "Name[x-test]": "xxColor Pickerxx",
        "Name[zh_CN]": "拾色器",
        "Name[zh_TW]": "取色工具",
        "ServiceTypes": [
            "Plasma/Applet"
        ],
        "Version": "2.0",
        "Website": "https://userbase.kde.org/Plasma/ColorPicker"
    },
    "X-Plasma-API": "declarativeappletscript",
    "X-Plasma-MainScript": "ui/main.qml",
    "X-Plasma-StandAloneApp": true
}
